
                data-paginator="{"current_page":2,"data":[{"id":224,"zone_id":2,"currency_id":1,"iso_code":"VI","call_prefix":0,"contains_states":0,"need_identification_number":0,"need_zip_code":1,"zip_code_format":"","display_tax_label":1,"created_at":"2026-01-25T05:17:57.000000Z","updated_at":"2026-01-25T05:17:57.000000Z","deleted_at":null,"lang":{"country_id":224,"lang_id":1,"name":"Virgin Islands (U.S.]","created_at":"2026-01-25T05:17:57.000000Z","updated_at":"2026-01-25T05:17:57.000000Z","deleted_at":null},"zone":{"id":2,"name":"North America","created_at":"2026-01-25T05:17:58.000000Z","updated_at":"2026-01-25T05:17:58.000000Z","deleted_at":null}},{"id":223,"zone_id":2,"currency_id":1,"iso_code":"VG","call_prefix":0,"contains_states":0,"need_identification_number":0,"need_zip_code":1,"zip_code_format":"CNNNN","display_tax_label":1,"created_at":"2026-01-25T05:17:57.000000Z","updated_at":"2026-01-25T05:17:57.000000Z","deleted_at":null,"lang":{"country_id":223,"lang_id":1,"name":"Virgin Islands (British]","created_at":"2026-01-25T05:17:57.000000Z","updated_at":"2026-01-25T05:17:57.000000Z","deleted_at":null},"zone":{"id":2,"name":"North America","created_at":"2026-01-25T05:17:58.000000Z","updated_at":"2026-01-25T05:17:58.000000Z","deleted_at":null}},{"id":222,"zone_id":3,"currency_id":1,"iso_code":"VN","call_prefix":84,"contains_states":0,"need_identification_number":0,"need_zip_code":1,"zip_code_format":"NNNNNN","display_tax_label":1,"created_at":"2026-01-25T05:17:57.000000Z","updated_at":"2026-01-25T05:17:57.000000Z","deleted_at":null,"lang":{"country_id":222,"lang_id":1,"name":"Vietnam","created_at":"2026-01-25T05:17:57.000000Z","updated_at":"2026-01-25T05:17:57.000000Z","deleted_at":null},"zone":{"id":3,"name":"Asia","created_at":"2026-01-25T05:17:58.000000Z","updated_at":"2026-01-25T05:17:58.000000Z","deleted_at":null}},{"id":221,"zone_id":6,"currency_id":1,"iso_code":"VE","call_prefix":58,"contains_states":0,"need_identification_number":0,"need_zip_code":1,"zip_code_format":"","display_tax_label":1,"created_at":"2026-01-25T05:17:57.000000Z","updated_at":"2026-01-25T05:17:57.000000Z","deleted_at":null,"lang":{"country_id":221,"lang_id":1,"name":"Venezuela","created_at":"2026-01-25T05:17:57.000000Z","updated_at":"2026-01-25T05:17:57.000000Z","deleted_at":null},"zone":{"id":6,"name":"South America","created_at":"2026-01-25T05:17:58.000000Z","updated_at":"2026-01-25T05:17:58.000000Z","deleted_at":null}},{"id":220,"zone_id":5,"currency_id":1,"iso_code":"VU","call_prefix":678,"contains_states":0,"need_identification_number":0,"need_zip_code":1,"zip_code_format":"","display_tax_label":1,"created_at":"2026-01-25T05:17:57.000000Z","updated_at":"2026-01-25T05:17:57.000000Z","deleted_at":null,"lang":{"country_id":220,"lang_id":1,"name":"Vanuatu","created_at":"2026-01-25T05:17:57.000000Z","updated_at":"2026-01-25T05:17:57.000000Z","deleted_at":null},"zone":{"id":5,"name":"Oceania","created_at":"2026-01-25T05:17:58.000000Z","updated_at":"2026-01-25T05:17:58.000000Z","deleted_at":null}},{"id":219,"zone_id":3,"currency_id":1,"iso_code":"UZ","call_prefix":998,"contains_states":0,"need_identification_number":0,"need_zip_code":1,"zip_code_format":"","display_tax_label":1,"created_at":"2026-01-25T05:17:57.000000Z","updated_at":"2026-01-25T05:17:57.000000Z","deleted_at":null,"lang":{"country_id":219,"lang_id":1,"name":"Uzbekistan","created_at":"2026-01-25T05:17:57.000000Z","updated_at":"2026-01-25T05:17:57.000000Z","deleted_at":null},"zone":{"id":3,"name":"Asia","created_at":"2026-01-25T05:17:58.000000Z","updated_at":"2026-01-25T05:17:58.000000Z","deleted_at":null}},{"id":218,"zone_id":6,"currency_id":1,"iso_code":"UY","call_prefix":598,"contains_states":0,"need_identification_number":0,"need_zip_code":1,"zip_code_format":"","display_tax_label":1,"created_at":"2026-01-25T05:17:57.000000Z","updated_at":"2026-01-25T05:17:57.000000Z","deleted_at":null,"lang":{"country_id":218,"lang_id":1,"name":"Uruguay","created_at":"2026-01-25T05:17:57.000000Z","updated_at":"2026-01-25T05:17:57.000000Z","deleted_at":null},"zone":{"id":6,"name":"South America","created_at":"2026-01-25T05:17:58.000000Z","updated_at":"2026-01-25T05:17:58.000000Z","deleted_at":null}},{"id":217,"zone_id":3,"currency_id":1,"iso_code":"AE","call_prefix":971,"contains_states":0,"need_identification_number":0,"need_zip_code":1,"zip_code_format":"","display_tax_label":1,"created_at":"2026-01-25T05:17:57.000000Z","updated_at":"2026-01-25T05:17:57.000000Z","deleted_at":null,"lang":{"country_id":217,"lang_id":1,"name":"United Arab Emirates","created_at":"2026-01-25T05:17:57.000000Z","updated_at":"2026-01-25T05:17:57.000000Z","deleted_at":null},"zone":{"id":3,"name":"Asia","created_at":"2026-01-25T05:17:58.000000Z","updated_at":"2026-01-25T05:17:58.000000Z","deleted_at":null}},{"id":216,"zone_id":1,"currency_id":1,"iso_code":"UA","call_prefix":380,"contains_states":0,"need_identification_number":0,"need_zip_code":1,"zip_code_format":"NNNNN","display_tax_label":1,"created_at":"2026-01-25T05:17:57.000000Z","updated_at":"2026-01-25T05:17:57.000000Z","deleted_at":null,"lang":{"country_id":216,"lang_id":1,"name":"Ukraine","created_at":"2026-01-25T05:17:57.000000Z","updated_at":"2026-01-25T05:17:57.000000Z","deleted_at":null},"zone":{"id":1,"name":"Europe","created_at":"2026-01-25T05:17:58.000000Z","updated_at":"2026-01-25T05:17:58.000000Z","deleted_at":null}},{"id":215,"zone_id":4,"currency_id":1,"iso_code":"UG","call_prefix":256,"contains_states":0,"need_identification_number":0,"need_zip_code":1,"zip_code_format":"","display_tax_label":1,"created_at":"2026-01-25T05:17:57.000000Z","updated_at":"2026-01-25T05:17:57.000000Z","deleted_at":null,"lang":{"country_id":215,"lang_id":1,"name":"Uganda","created_at":"2026-01-25T05:17:57.000000Z","updated_at":"2026-01-25T05:17:57.000000Z","deleted_at":null},"zone":{"id":4,"name":"Africa","created_at":"2026-01-25T05:17:58.000000Z","updated_at":"2026-01-25T05:17:58.000000Z","deleted_at":null}},{"id":214,"zone_id":5,"currency_id":1,"iso_code":"TV","call_prefix":688,"contains_states":0,"need_identification_number":0,"need_zip_code":1,"zip_code_format":"","display_tax_label":1,"created_at":"2026-01-25T05:17:57.000000Z","updated_at":"2026-01-25T05:17:57.000000Z","deleted_at":null,"lang":{"country_id":214,"lang_id":1,"name":"Tuvalu","created_at":"2026-01-25T05:17:57.000000Z","updated_at":"2026-01-25T05:17:57.000000Z","deleted_at":null},"zone":{"id":5,"name":"Oceania","created_at":"2026-01-25T05:17:58.000000Z","updated_at":"2026-01-25T05:17:58.000000Z","deleted_at":null}},{"id":213,"zone_id":8,"currency_id":1,"iso_code":"TC","call_prefix":0,"contains_states":0,"need_identification_number":0,"need_zip_code":1,"zip_code_format":"LLLL NLL","display_tax_label":1,"created_at":"2026-01-25T05:17:57.000000Z","updated_at":"2026-01-25T05:17:57.000000Z","deleted_at":null,"lang":{"country_id":213,"lang_id":1,"name":"Turks and Caicos Islands","created_at":"2026-01-25T05:17:57.000000Z","updated_at":"2026-01-25T05:17:57.000000Z","deleted_at":null},"zone":{"id":8,"name":"Central America\/Antilla","created_at":"2026-01-25T05:17:58.000000Z","updated_at":"2026-01-25T05:17:58.000000Z","deleted_at":null}},{"id":212,"zone_id":3,"currency_id":1,"iso_code":"TM","call_prefix":993,"contains_states":0,"need_identification_number":0,"need_zip_code":1,"zip_code_format":"","display_tax_label":1,"created_at":"2026-01-25T05:17:57.000000Z","updated_at":"2026-01-25T05:17:57.000000Z","deleted_at":null,"lang":{"country_id":212,"lang_id":1,"name":"Turkmenistan","created_at":"2026-01-25T05:17:57.000000Z","updated_at":"2026-01-25T05:17:57.000000Z","deleted_at":null},"zone":{"id":3,"name":"Asia","created_at":"2026-01-25T05:17:58.000000Z","updated_at":"2026-01-25T05:17:58.000000Z","deleted_at":null}},{"id":211,"zone_id":7,"currency_id":1,"iso_code":"TR","call_prefix":90,"contains_states":0,"need_identification_number":0,"need_zip_code":1,"zip_code_format":"NNNNN","display_tax_label":1,"created_at":"2026-01-25T05:17:57.000000Z","updated_at":"2026-01-25T05:17:57.000000Z","deleted_at":null,"lang":{"country_id":211,"lang_id":1,"name":"Turkey","created_at":"2026-01-25T05:17:57.000000Z","updated_at":"2026-01-25T05:17:57.000000Z","deleted_at":null},"zone":{"id":7,"name":"Europe (out E.U)","created_at":"2026-01-25T05:17:58.000000Z","updated_at":"2026-01-25T05:17:58.000000Z","deleted_at":null}},{"id":210,"zone_id":4,"currency_id":1,"iso_code":"TN","call_prefix":216,"contains_states":0,"need_identification_number":0,"need_zip_code":1,"zip_code_format":"","display_tax_label":1,"created_at":"2026-01-25T05:17:57.000000Z","updated_at":"2026-01-25T05:17:57.000000Z","deleted_at":null,"lang":{"country_id":210,"lang_id":1,"name":"Tunisia","created_at":"2026-01-25T05:17:57.000000Z","updated_at":"2026-01-25T05:17:57.000000Z","deleted_at":null},"zone":{"id":4,"name":"Africa","created_at":"2026-01-25T05:17:58.000000Z","updated_at":"2026-01-25T05:17:58.000000Z","deleted_at":null}},{"id":209,"zone_id":6,"currency_id":1,"iso_code":"TT","call_prefix":0,"contains_states":0,"need_identification_number":0,"need_zip_code":1,"zip_code_format":"","display_tax_label":1,"created_at":"2026-01-25T05:17:57.000000Z","updated_at":"2026-01-25T05:17:57.000000Z","deleted_at":null,"lang":{"country_id":209,"lang_id":1,"name":"Trinidad and Tobago","created_at":"2026-01-25T05:17:57.000000Z","updated_at":"2026-01-25T05:17:57.000000Z","deleted_at":null},"zone":{"id":6,"name":"South America","created_at":"2026-01-25T05:17:58.000000Z","updated_at":"2026-01-25T05:17:58.000000Z","deleted_at":null}},{"id":208,"zone_id":5,"currency_id":1,"iso_code":"TO","call_prefix":676,"contains_states":0,"need_identification_number":0,"need_zip_code":1,"zip_code_format":"","display_tax_label":1,"created_at":"2026-01-25T05:17:57.000000Z","updated_at":"2026-01-25T05:17:57.000000Z","deleted_at":null,"lang":{"country_id":208,"lang_id":1,"name":"Tonga","created_at":"2026-01-25T05:17:57.000000Z","updated_at":"2026-01-25T05:17:57.000000Z","deleted_at":null},"zone":{"id":5,"name":"Oceania","created_at":"2026-01-25T05:17:58.000000Z","updated_at":"2026-01-25T05:17:58.000000Z","deleted_at":null}},{"id":207,"zone_id":5,"currency_id":1,"iso_code":"TK","call_prefix":690,"contains_states":0,"need_identification_number":0,"need_zip_code":1,"zip_code_format":"","display_tax_label":1,"created_at":"2026-01-25T05:17:57.000000Z","updated_at":"2026-01-25T05:17:57.000000Z","deleted_at":null,"lang":{"country_id":207,"lang_id":1,"name":"Tokelau","created_at":"2026-01-25T05:17:57.000000Z","updated_at":"2026-01-25T05:17:57.000000Z","deleted_at":null},"zone":{"id":5,"name":"Oceania","created_at":"2026-01-25T05:17:58.000000Z","updated_at":"2026-01-25T05:17:58.000000Z","deleted_at":null}},{"id":206,"zone_id":3,"currency_id":1,"iso_code":"TH","call_prefix":66,"contains_states":0,"need_identification_number":0,"need_zip_code":1,"zip_code_format":"NNNNN","display_tax_label":1,"created_at":"2026-01-25T05:17:57.000000Z","updated_at":"2026-01-25T05:17:57.000000Z","deleted_at":null,"lang":{"country_id":206,"lang_id":1,"name":"Thailand","created_at":"2026-01-25T05:17:57.000000Z","updated_at":"2026-01-25T05:17:57.000000Z","deleted_at":null},"zone":{"id":3,"name":"Asia","created_at":"2026-01-25T05:17:58.000000Z","updated_at":"2026-01-25T05:17:58.000000Z","deleted_at":null}},{"id":205,"zone_id":4,"currency_id":1,"iso_code":"TZ","call_prefix":255,"contains_states":0,"need_identification_number":0,"need_zip_code":1,"zip_code_format":"","display_tax_label":1,"created_at":"2026-01-25T05:17:57.000000Z","updated_at":"2026-01-25T05:17:57.000000Z","deleted_at":null,"lang":{"country_id":205,"lang_id":1,"name":"Tanzania","created_at":"2026-01-25T05:17:57.000000Z","updated_at":"2026-01-25T05:17:57.000000Z","deleted_at":null},"zone":{"id":4,"name":"Africa","created_at":"2026-01-25T05:17:58.000000Z","updated_at":"2026-01-25T05:17:58.000000Z","deleted_at":null}}],"first_page_url":"http:\/\/localhost:8000\/admin\/country?page=1","from":21,"last_page":13,"last_page_url":"http:\/\/localhost:8000\/admin\/country?page=13","links":[{"url":"http:\/\/localhost:8000\/admin\/country?page=1","label":"&laquo; Previous","page":1,"active":false},{"url":"http:\/\/localhost:8000\/admin\/country?page=1","label":"1","page":1,"active":false},{"url":"http:\/\/localhost:8000\/admin\/country?page=2","label":"2","page":2,"active":true},{"url":"http:\/\/localhost:8000\/admin\/country?page=3","label":"3","page":3,"active":false},{"url":"http:\/\/localhost:8000\/admin\/country?page=4","label":"4","page":4,"active":false},{"url":"http:\/\/localhost:8000\/admin\/country?page=5","label":"5","page":5,"active":false},{"url":"http:\/\/localhost:8000\/admin\/country?page=6","label":"6","page":6,"active":false},{"url":"http:\/\/localhost:8000\/admin\/country?page=7","label":"7","page":7,"active":false},{"url":"http:\/\/localhost:8000\/admin\/country?page=8","label":"8","page":8,"active":false},{"url":"http:\/\/localhost:8000\/admin\/country?page=9","label":"9","page":9,"active":false},{"url":"http:\/\/localhost:8000\/admin\/country?page=10","label":"10","page":10,"active":false},{"url":"http:\/\/localhost:8000\/admin\/country?page=11","label":"11","page":11,"active":false},{"url":"http:\/\/localhost:8000\/admin\/country?page=12","label":"12","page":12,"active":false},{"url":"http:\/\/localhost:8000\/admin\/country?page=13","label":"13","page":13,"active":false},{"url":"http:\/\/localhost:8000\/admin\/country?page=3","label":"Next &raquo;","page":3,"active":false}],"next_page_url":"http:\/\/localhost:8000\/admin\/country?page=3","path":"http:\/\/localhost:8000\/admin\/country","per_page":20,"prev_page_url":"http:\/\/localhost:8000\/admin\/country?page=1","to":40,"total":244}"
                data-first-item="21"
                data-last-item="40"
                data-total="244"
                data-controller-name="country"
                data-next-label="»"
                data-previous-label="«"
                data-show-download="1"
        
