
                data-paginator="{"current_page":1,"data":[{"id":244,"zone_id":7,"currency_id":1,"iso_code":"AX","call_prefix":0,"contains_states":0,"need_identification_number":0,"need_zip_code":1,"zip_code_format":"NNNNN","display_tax_label":1,"created_at":"2026-01-25T05:17:57.000000Z","updated_at":"2026-01-25T05:17:57.000000Z","deleted_at":null,"lang":{"country_id":244,"lang_id":1,"name":"\u00c5land Islands","created_at":"2026-01-25T05:17:57.000000Z","updated_at":"2026-01-25T05:17:57.000000Z","deleted_at":null},"zone":{"id":7,"name":"Europe (out E.U)","created_at":"2026-01-25T05:17:58.000000Z","updated_at":"2026-01-25T05:17:58.000000Z","deleted_at":null}},{"id":243,"zone_id":5,"currency_id":1,"iso_code":"TF","call_prefix":0,"contains_states":0,"need_identification_number":0,"need_zip_code":1,"zip_code_format":"","display_tax_label":1,"created_at":"2026-01-25T05:17:57.000000Z","updated_at":"2026-01-25T05:17:57.000000Z","deleted_at":null,"lang":{"country_id":243,"lang_id":1,"name":"French Southern Territories","created_at":"2026-01-25T05:17:57.000000Z","updated_at":"2026-01-25T05:17:57.000000Z","deleted_at":null},"zone":{"id":5,"name":"Oceania","created_at":"2026-01-25T05:17:58.000000Z","updated_at":"2026-01-25T05:17:58.000000Z","deleted_at":null}},{"id":242,"zone_id":5,"currency_id":1,"iso_code":"PF","call_prefix":689,"contains_states":0,"need_identification_number":0,"need_zip_code":1,"zip_code_format":"","display_tax_label":1,"created_at":"2026-01-25T05:17:57.000000Z","updated_at":"2026-01-25T05:17:57.000000Z","deleted_at":null,"lang":{"country_id":242,"lang_id":1,"name":"French Polynesia","created_at":"2026-01-25T05:17:57.000000Z","updated_at":"2026-01-25T05:17:57.000000Z","deleted_at":null},"zone":{"id":5,"name":"Oceania","created_at":"2026-01-25T05:17:58.000000Z","updated_at":"2026-01-25T05:17:58.000000Z","deleted_at":null}},{"id":241,"zone_id":6,"currency_id":1,"iso_code":"GF","call_prefix":594,"contains_states":0,"need_identification_number":0,"need_zip_code":1,"zip_code_format":"","display_tax_label":1,"created_at":"2026-01-25T05:17:57.000000Z","updated_at":"2026-01-25T05:17:57.000000Z","deleted_at":null,"lang":{"country_id":241,"lang_id":1,"name":"French Guiana","created_at":"2026-01-25T05:17:57.000000Z","updated_at":"2026-01-25T05:17:57.000000Z","deleted_at":null},"zone":{"id":6,"name":"South America","created_at":"2026-01-25T05:17:58.000000Z","updated_at":"2026-01-25T05:17:58.000000Z","deleted_at":null}},{"id":240,"zone_id":5,"currency_id":1,"iso_code":"CK","call_prefix":682,"contains_states":0,"need_identification_number":0,"need_zip_code":1,"zip_code_format":"","display_tax_label":1,"created_at":"2026-01-25T05:17:57.000000Z","updated_at":"2026-01-25T05:17:57.000000Z","deleted_at":null,"lang":{"country_id":240,"lang_id":1,"name":"Cook Islands","created_at":"2026-01-25T05:17:57.000000Z","updated_at":"2026-01-25T05:17:57.000000Z","deleted_at":null},"zone":{"id":5,"name":"Oceania","created_at":"2026-01-25T05:17:58.000000Z","updated_at":"2026-01-25T05:17:58.000000Z","deleted_at":null}},{"id":239,"zone_id":3,"currency_id":1,"iso_code":"CC","call_prefix":0,"contains_states":0,"need_identification_number":0,"need_zip_code":1,"zip_code_format":"","display_tax_label":1,"created_at":"2026-01-25T05:17:57.000000Z","updated_at":"2026-01-25T05:17:57.000000Z","deleted_at":null,"lang":{"country_id":239,"lang_id":1,"name":"Cocos (Keeling] Islands","created_at":"2026-01-25T05:17:57.000000Z","updated_at":"2026-01-25T05:17:57.000000Z","deleted_at":null},"zone":{"id":3,"name":"Asia","created_at":"2026-01-25T05:17:58.000000Z","updated_at":"2026-01-25T05:17:58.000000Z","deleted_at":null}},{"id":238,"zone_id":3,"currency_id":1,"iso_code":"CX","call_prefix":0,"contains_states":0,"need_identification_number":0,"need_zip_code":1,"zip_code_format":"","display_tax_label":1,"created_at":"2026-01-25T05:17:57.000000Z","updated_at":"2026-01-25T05:17:57.000000Z","deleted_at":null,"lang":{"country_id":238,"lang_id":1,"name":"Christmas Island","created_at":"2026-01-25T05:17:57.000000Z","updated_at":"2026-01-25T05:17:57.000000Z","deleted_at":null},"zone":{"id":3,"name":"Asia","created_at":"2026-01-25T05:17:58.000000Z","updated_at":"2026-01-25T05:17:58.000000Z","deleted_at":null}},{"id":237,"zone_id":8,"currency_id":1,"iso_code":"KY","call_prefix":0,"contains_states":0,"need_identification_number":0,"need_zip_code":1,"zip_code_format":"","display_tax_label":1,"created_at":"2026-01-25T05:17:57.000000Z","updated_at":"2026-01-25T05:17:57.000000Z","deleted_at":null,"lang":{"country_id":237,"lang_id":1,"name":"Cayman Islands","created_at":"2026-01-25T05:17:57.000000Z","updated_at":"2026-01-25T05:17:57.000000Z","deleted_at":null},"zone":{"id":8,"name":"Central America\/Antilla","created_at":"2026-01-25T05:17:58.000000Z","updated_at":"2026-01-25T05:17:58.000000Z","deleted_at":null}},{"id":236,"zone_id":1,"currency_id":1,"iso_code":"BG","call_prefix":359,"contains_states":0,"need_identification_number":0,"need_zip_code":1,"zip_code_format":"NNNN","display_tax_label":1,"created_at":"2026-01-25T05:17:57.000000Z","updated_at":"2026-01-25T05:17:57.000000Z","deleted_at":null,"lang":{"country_id":236,"lang_id":1,"name":"Bulgaria","created_at":"2026-01-25T05:17:57.000000Z","updated_at":"2026-01-25T05:17:57.000000Z","deleted_at":null},"zone":{"id":1,"name":"Europe","created_at":"2026-01-25T05:17:58.000000Z","updated_at":"2026-01-25T05:17:58.000000Z","deleted_at":null}},{"id":235,"zone_id":5,"currency_id":1,"iso_code":"IO","call_prefix":0,"contains_states":0,"need_identification_number":0,"need_zip_code":1,"zip_code_format":"LLLL NLL","display_tax_label":1,"created_at":"2026-01-25T05:17:57.000000Z","updated_at":"2026-01-25T05:17:57.000000Z","deleted_at":null,"lang":{"country_id":235,"lang_id":1,"name":"British Indian Ocean Territory","created_at":"2026-01-25T05:17:57.000000Z","updated_at":"2026-01-25T05:17:57.000000Z","deleted_at":null},"zone":{"id":5,"name":"Oceania","created_at":"2026-01-25T05:17:58.000000Z","updated_at":"2026-01-25T05:17:58.000000Z","deleted_at":null}},{"id":234,"zone_id":5,"currency_id":1,"iso_code":"BV","call_prefix":0,"contains_states":0,"need_identification_number":0,"need_zip_code":1,"zip_code_format":"","display_tax_label":1,"created_at":"2026-01-25T05:17:57.000000Z","updated_at":"2026-01-25T05:17:57.000000Z","deleted_at":null,"lang":{"country_id":234,"lang_id":1,"name":"Bouvet Island","created_at":"2026-01-25T05:17:57.000000Z","updated_at":"2026-01-25T05:17:57.000000Z","deleted_at":null},"zone":{"id":5,"name":"Oceania","created_at":"2026-01-25T05:17:58.000000Z","updated_at":"2026-01-25T05:17:58.000000Z","deleted_at":null}},{"id":233,"zone_id":1,"currency_id":1,"iso_code":"BA","call_prefix":387,"contains_states":0,"need_identification_number":0,"need_zip_code":1,"zip_code_format":"","display_tax_label":1,"created_at":"2026-01-25T05:17:57.000000Z","updated_at":"2026-01-25T05:17:57.000000Z","deleted_at":null,"lang":{"country_id":233,"lang_id":1,"name":"Bosnia and Herzegovina","created_at":"2026-01-25T05:17:57.000000Z","updated_at":"2026-01-25T05:17:57.000000Z","deleted_at":null},"zone":{"id":1,"name":"Europe","created_at":"2026-01-25T05:17:58.000000Z","updated_at":"2026-01-25T05:17:58.000000Z","deleted_at":null}},{"id":232,"zone_id":5,"currency_id":1,"iso_code":"AQ","call_prefix":0,"contains_states":0,"need_identification_number":0,"need_zip_code":1,"zip_code_format":"","display_tax_label":1,"created_at":"2026-01-25T05:17:57.000000Z","updated_at":"2026-01-25T05:17:57.000000Z","deleted_at":null,"lang":{"country_id":232,"lang_id":1,"name":"Antarctica","created_at":"2026-01-25T05:17:57.000000Z","updated_at":"2026-01-25T05:17:57.000000Z","deleted_at":null},"zone":{"id":5,"name":"Oceania","created_at":"2026-01-25T05:17:58.000000Z","updated_at":"2026-01-25T05:17:58.000000Z","deleted_at":null}},{"id":231,"zone_id":3,"currency_id":1,"iso_code":"AF","call_prefix":93,"contains_states":0,"need_identification_number":0,"need_zip_code":0,"zip_code_format":"","display_tax_label":1,"created_at":"2026-01-25T05:17:57.000000Z","updated_at":"2026-01-25T05:17:57.000000Z","deleted_at":null,"lang":{"country_id":231,"lang_id":1,"name":"Afghanistan","created_at":"2026-01-25T05:17:57.000000Z","updated_at":"2026-01-25T05:17:57.000000Z","deleted_at":null},"zone":{"id":3,"name":"Asia","created_at":"2026-01-25T05:17:58.000000Z","updated_at":"2026-01-25T05:17:58.000000Z","deleted_at":null}},{"id":230,"zone_id":7,"currency_id":1,"iso_code":"AL","call_prefix":355,"contains_states":0,"need_identification_number":0,"need_zip_code":1,"zip_code_format":"NNNN","display_tax_label":1,"created_at":"2026-01-25T05:17:57.000000Z","updated_at":"2026-01-25T05:17:57.000000Z","deleted_at":null,"lang":{"country_id":230,"lang_id":1,"name":"Albania","created_at":"2026-01-25T05:17:57.000000Z","updated_at":"2026-01-25T05:17:57.000000Z","deleted_at":null},"zone":{"id":7,"name":"Europe (out E.U)","created_at":"2026-01-25T05:17:58.000000Z","updated_at":"2026-01-25T05:17:58.000000Z","deleted_at":null}},{"id":229,"zone_id":4,"currency_id":1,"iso_code":"ZW","call_prefix":263,"contains_states":0,"need_identification_number":0,"need_zip_code":1,"zip_code_format":"","display_tax_label":1,"created_at":"2026-01-25T05:17:57.000000Z","updated_at":"2026-01-25T05:17:57.000000Z","deleted_at":null,"lang":{"country_id":229,"lang_id":1,"name":"Zimbabwe","created_at":"2026-01-25T05:17:57.000000Z","updated_at":"2026-01-25T05:17:57.000000Z","deleted_at":null},"zone":{"id":4,"name":"Africa","created_at":"2026-01-25T05:17:58.000000Z","updated_at":"2026-01-25T05:17:58.000000Z","deleted_at":null}},{"id":228,"zone_id":4,"currency_id":1,"iso_code":"ZM","call_prefix":260,"contains_states":0,"need_identification_number":0,"need_zip_code":1,"zip_code_format":"","display_tax_label":1,"created_at":"2026-01-25T05:17:57.000000Z","updated_at":"2026-01-25T05:17:57.000000Z","deleted_at":null,"lang":{"country_id":228,"lang_id":1,"name":"Zambia","created_at":"2026-01-25T05:17:57.000000Z","updated_at":"2026-01-25T05:17:57.000000Z","deleted_at":null},"zone":{"id":4,"name":"Africa","created_at":"2026-01-25T05:17:58.000000Z","updated_at":"2026-01-25T05:17:58.000000Z","deleted_at":null}},{"id":227,"zone_id":3,"currency_id":1,"iso_code":"YE","call_prefix":967,"contains_states":0,"need_identification_number":0,"need_zip_code":1,"zip_code_format":"","display_tax_label":1,"created_at":"2026-01-25T05:17:57.000000Z","updated_at":"2026-01-25T05:17:57.000000Z","deleted_at":null,"lang":{"country_id":227,"lang_id":1,"name":"Yemen","created_at":"2026-01-25T05:17:57.000000Z","updated_at":"2026-01-25T05:17:57.000000Z","deleted_at":null},"zone":{"id":3,"name":"Asia","created_at":"2026-01-25T05:17:58.000000Z","updated_at":"2026-01-25T05:17:58.000000Z","deleted_at":null}},{"id":226,"zone_id":4,"currency_id":1,"iso_code":"EH","call_prefix":0,"contains_states":0,"need_identification_number":0,"need_zip_code":1,"zip_code_format":"","display_tax_label":1,"created_at":"2026-01-25T05:17:57.000000Z","updated_at":"2026-01-25T05:17:57.000000Z","deleted_at":null,"lang":{"country_id":226,"lang_id":1,"name":"Western Sahara","created_at":"2026-01-25T05:17:57.000000Z","updated_at":"2026-01-25T05:17:57.000000Z","deleted_at":null},"zone":{"id":4,"name":"Africa","created_at":"2026-01-25T05:17:58.000000Z","updated_at":"2026-01-25T05:17:58.000000Z","deleted_at":null}},{"id":225,"zone_id":5,"currency_id":1,"iso_code":"WF","call_prefix":681,"contains_states":0,"need_identification_number":0,"need_zip_code":1,"zip_code_format":"","display_tax_label":1,"created_at":"2026-01-25T05:17:57.000000Z","updated_at":"2026-01-25T05:17:57.000000Z","deleted_at":null,"lang":{"country_id":225,"lang_id":1,"name":"Wallis and Futuna","created_at":"2026-01-25T05:17:57.000000Z","updated_at":"2026-01-25T05:17:57.000000Z","deleted_at":null},"zone":{"id":5,"name":"Oceania","created_at":"2026-01-25T05:17:58.000000Z","updated_at":"2026-01-25T05:17:58.000000Z","deleted_at":null}}],"first_page_url":"http:\/\/localhost:8000\/admin\/country?page=1","from":1,"last_page":13,"last_page_url":"http:\/\/localhost:8000\/admin\/country?page=13","links":[{"url":null,"label":"&laquo; Previous","page":null,"active":false},{"url":"http:\/\/localhost:8000\/admin\/country?page=1","label":"1","page":1,"active":true},{"url":"http:\/\/localhost:8000\/admin\/country?page=2","label":"2","page":2,"active":false},{"url":"http:\/\/localhost:8000\/admin\/country?page=3","label":"3","page":3,"active":false},{"url":"http:\/\/localhost:8000\/admin\/country?page=4","label":"4","page":4,"active":false},{"url":"http:\/\/localhost:8000\/admin\/country?page=5","label":"5","page":5,"active":false},{"url":"http:\/\/localhost:8000\/admin\/country?page=6","label":"6","page":6,"active":false},{"url":"http:\/\/localhost:8000\/admin\/country?page=7","label":"7","page":7,"active":false},{"url":"http:\/\/localhost:8000\/admin\/country?page=8","label":"8","page":8,"active":false},{"url":"http:\/\/localhost:8000\/admin\/country?page=9","label":"9","page":9,"active":false},{"url":"http:\/\/localhost:8000\/admin\/country?page=10","label":"10","page":10,"active":false},{"url":"http:\/\/localhost:8000\/admin\/country?page=11","label":"11","page":11,"active":false},{"url":"http:\/\/localhost:8000\/admin\/country?page=12","label":"12","page":12,"active":false},{"url":"http:\/\/localhost:8000\/admin\/country?page=13","label":"13","page":13,"active":false},{"url":"http:\/\/localhost:8000\/admin\/country?page=2","label":"Next &raquo;","page":2,"active":false}],"next_page_url":"http:\/\/localhost:8000\/admin\/country?page=2","path":"http:\/\/localhost:8000\/admin\/country","per_page":20,"prev_page_url":null,"to":20,"total":244}"
                data-first-item="1"
                data-last-item="20"
                data-total="244"
                data-controller-name="country"
                data-next-label="»"
                data-previous-label="«"
                data-show-download="1"
        
